[
    {
        "PaperSize": "A4",
        "DoubleSided": false,
        "BWPrice": 15,
        "ColorPrice": 25
    },
    {
        "PaperSize": "A4",
        "DoubleSided": true,
        "BWPrice": 10,
        "ColorPrice": 20
    }
]